{
    {
        ...
        "first_page_url": "http://192.168.1.129:8007/api/vehicle-profile?page=1",
        "from": 1,
        "last_page": 9,
        "last_page_url": "http://192.168.1.129:8007/api/vehicle-profile?page=9",
        "links": [
            {
                "url": null,
                "label": "&laquo; Previous",
                "active": false
            },
            {
                "url": "http://192.168.1.129:8007/api/vehicle-profile?page=1",
                "label": "1",
                "active": true
            },
            {
                "url": "http://192.168.1.129:8007/api/vehicle-profile?page=2",
                "label": "2",
                "active": false
            },
            {
                "url": "http://192.168.1.129:8007/api/vehicle-profile?page=3",
                "label": "3",
                "active": false
            },
            {
                "url": "http://192.168.1.129:8007/api/vehicle-profile?page=4",
                "label": "4",
                "active": false
            },
            {
                "url": "http://192.168.1.129:8007/api/vehicle-profile?page=5",
                "label": "5",
                "active": false
            },
            {
                "url": "http://192.168.1.129:8007/api/vehicle-profile?page=6",
                "label": "6",
                "active": false
            },
            {
                "url": "http://192.168.1.129:8007/api/vehicle-profile?page=7",
                "label": "7",
                "active": false
            },
            {
                "url": "http://192.168.1.129:8007/api/vehicle-profile?page=8",
                "label": "8",
                "active": false
            },
            {
                "url": "http://192.168.1.129:8007/api/vehicle-profile?page=9",
                "label": "9",
                "active": false
            },
            {
                "url": "http://192.168.1.129:8007/api/vehicle-profile?page=2",
                "label": "Next &raquo;",
                "active": false
            }
        ],
        "next_page_url": "http://192.168.1.129:8007/api/vehicle-profile?page=2",
        "path": "http://192.168.1.129:8007/api/vehicle-profile",
        "per_page": 10,
        "prev_page_url": null,
        "to": 10,
        "total": 85
    }
}